PCBNEW-LibModule-V1  7/20/2014 1:42:22 AM
# encoding utf-8
Units mm
$INDEX
PIN_HDR-3
PIN_HDR-4
$EndINDEX
$MODULE PIN_HDR-3
Po 0 0 0 15 53CAF847 00000000 ~~
Li PIN_HDR-3
Sc 0
AR /53C834F6
Op 0 0 0
T0 0 -1.27 0.5 0.5 0 0.1 N I 21 N "REF**"
T1 0 1.27 0.5 0.5 0 0.1 N I 21 N "PIN_HDR-3"
DS -3.81 -1.27 -3.81 -1.27 0.2 21
DS -3.81 1.27 -3.81 -1.27 0.2 21
DS -3.81 -1.27 -3.81 -1.27 0.2 21
DS -3.81 -1.27 3.81 -1.27 0.2 21
DS 3.81 -1.27 3.81 1.27 0.2 21
DS 3.81 1.27 -3.81 1.27 0.2 21
$PAD
Sh "1" C 1.4224 1.4224 0 0 0
Dr 0.8636 0 0
At STD N 00E0FFFF
Ne 0 ""
Po -2.54 0
$EndPAD
$PAD
Sh "2" C 1.4224 1.4224 0 0 0
Dr 0.8636 0 0
At STD N 00E0FFFF
Ne 0 ""
Po 0 0
$EndPAD
$PAD
Sh "3" C 1.4224 1.4224 0 0 0
Dr 0.8636 0 0
At STD N 00E0FFFF
Ne 0 ""
Po 2.54 0
$EndPAD
$EndMODULE PIN_HDR-3
$MODULE PIN_HDR-4
Po 0 0 0 15 53CB63D8 00000000 ~~
Li PIN_HDR-4
Sc 0
AR /53B8A57F
Op 0 0 0
T0 0 -1.27 0.5 0.5 0 0.1 N I 21 N "REF**"
T1 0 1.27 0.5 0.5 0 0.1 N I 21 N "PIN_HDR-4"
DS -5.08 -1.27 -5.08 -1.27 0.2 21
DS -5.08 1.27 -5.08 -1.27 0.2 21
DS -5.08 -1.27 -5.08 -1.27 0.2 21
DS -5.08 -1.27 5.08 -1.27 0.2 21
DS 5.08 -1.27 5.08 1.27 0.2 21
DS 5.08 1.27 -5.08 1.27 0.2 21
$PAD
Sh "1" C 1.4224 1.4224 0 0 0
Dr 0.8636 0 0
At STD N 00E0FFFF
Ne 0 ""
Po -3.81 0
$EndPAD
$PAD
Sh "2" C 1.4224 1.4224 0 0 0
Dr 0.8636 0 0
At STD N 00E0FFFF
Ne 0 ""
Po -1.27 0
$EndPAD
$PAD
Sh "3" C 1.4224 1.4224 0 0 0
Dr 0.8636 0 0
At STD N 00E0FFFF
Ne 0 ""
Po 1.27 0
$EndPAD
$PAD
Sh "4" C 1.4224 1.4224 0 0 0
Dr 0.8636 0 0
At STD N 00E0FFFF
Ne 0 ""
Po 3.81 0
$EndPAD
$EndMODULE PIN_HDR-4
$EndLIBRARY
