PCBNEW-LibModule-V1  7/19/2014 5:44:44 PM
# encoding utf-8
Units mm
$INDEX
WS2812B
$EndINDEX
$MODULE WS2812B
Po 0 0 0 15 53CAF4A7 00000000 ~~
Li WS2812B
Sc 0
AR 
Op 0 0 0
T0 0 -1.27 0.5 0.5 0 0.1 N V 21 N "REF**"
T1 0 0 0.5 0.5 0 0.1 N V 21 N "WS2812B"
DC 0 0 2 0.5 0.15 21
DS 1 2.5 2.5 1 0.15 21
DS -2.5 -2.5 -2.5 2.5 0.15 21
DS -2.5 2.5 2.5 2.5 0.15 21
DS 2.5 2.5 2.5 -2.5 0.15 21
DS 2.5 -2.5 -2.5 -2.5 0.15 21
$PAD
Sh "1" R 1.5 0.9 0 0 0
Dr 0 0 0
At SMD N 00888000
Ne 0 ""
Po -2.45 -1.65
$EndPAD
$PAD
Sh "2" R 1.5 0.9 0 0 0
Dr 0 0 0
At SMD N 00888000
Ne 0 ""
Po -2.45 1.65
$EndPAD
$PAD
Sh "3" R 1.5 0.9 0 0 0
Dr 0 0 0
At SMD N 00888000
Ne 0 ""
Po 2.45 1.65
$EndPAD
$PAD
Sh "4" R 1.5 0.9 0 0 0
Dr 0 0 0
At SMD N 00888000
Ne 0 ""
Po 2.45 -1.65
$EndPAD
$EndMODULE WS2812B
$EndLIBRARY
