(kicad_pcb (version 3) (host pcbnew "(2013-07-07 BZR 4022)-stable")

  (general
    (links 8)
    (no_connects 0)
    (area -5.685713 -4.13 15.925715 10.32)
    (thickness 1.6)
    (drawings 24)
    (tracks 12)
    (zones 0)
    (modules 4)
    (nets 5)
  )

  (page A3)
  (layers
    (15 F.Cu signal)
    (0 B.Cu signal hide)
    (20 B.SilkS user hide)
    (21 F.SilkS user)
    (22 B.Mask user hide)
    (23 F.Mask user hide)
    (24 Dwgs.User user hide)
    (28 Edge.Cuts user)
  )

  (setup
    (last_trace_width 0.508)
    (trace_clearance 0.1778)
    (zone_clearance 0.1778)
    (zone_45_only no)
    (trace_min 0.1524)
    (segment_width 0.15)
    (edge_width 0.0254)
    (via_size 0.6858)
    (via_drill 0.3302)
    (via_min_size 0.6858)
    (via_min_drill 0.3302)
    (uvia_size 0.6858)
    (uvia_drill 0.3302)
    (uvias_allowed no)
    (uvia_min_size 0.6858)
    (uvia_min_drill 0.3302)
    (pcb_text_width 0.3)
    (pcb_text_size 1.5 1.5)
    (mod_edge_width 0.15)
    (mod_text_size 1 1)
    (mod_text_width 0.15)
    (pad_size 1.397 1.397)
    (pad_drill 0.8128)
    (pad_to_mask_clearance 0)
    (aux_axis_origin 0 0)
    (visible_elements 7FFFFD9F)
    (pcbplotparams
      (layerselection 284196865)
      (usegerberextensions true)
      (excludeedgelayer true)
      (linewidth 0.150000)
      (plotframeref false)
      (viasonmask false)
      (mode 1)
      (useauxorigin false)
      (hpglpennumber 1)
      (hpglpenspeed 20)
      (hpglpendiameter 15)
      (hpglpenoverlay 2)
      (psnegative false)
      (psa4output false)
      (plotreference true)
      (plotvalue true)
      (plotothertext true)
      (plotinvisibletext false)
      (padsonsilk false)
      (subtractmaskfromsilk false)
      (outputformat 1)
      (mirror false)
      (drillshape 0)
      (scaleselection 1)
      (outputdirectory output/gerber/))
  )

  (net 0 "")
  (net 1 /DIN)
  (net 2 /DOUT)
  (net 3 GND)
  (net 4 VCC)

  (net_class Default "This is the default net class."
    (clearance 0.1778)
    (trace_width 0.508)
    (via_dia 0.6858)
    (via_drill 0.3302)
    (uvia_dia 0.6858)
    (uvia_drill 0.3302)
    (add_net "")
    (add_net /DIN)
    (add_net /DOUT)
    (add_net GND)
    (add_net VCC)
  )

  (module WS2812B (layer F.Cu) (tedit 53CAF4A7) (tstamp 53C83A87)
    (at 0 0 270)
    (path /53C836E9)
    (fp_text reference U1 (at 0 -1.27 270) (layer F.SilkS)
      (effects (font (size 0.5 0.5) (thickness 0.1)))
    )
    (fp_text value WS2812B (at 0 0 270) (layer F.SilkS)
      (effects (font (size 0.5 0.5) (thickness 0.1)))
    )
    (fp_circle (center 0 0) (end 2 0.5) (layer F.SilkS) (width 0.15))
    (fp_line (start 1 2.5) (end 2.5 1) (layer F.SilkS) (width 0.15))
    (fp_line (start -2.5 -2.5) (end -2.5 2.5) (layer F.SilkS) (width 0.15))
    (fp_line (start -2.5 2.5) (end 2.5 2.5) (layer F.SilkS) (width 0.15))
    (fp_line (start 2.5 2.5) (end 2.5 -2.5) (layer F.SilkS) (width 0.15))
    (fp_line (start 2.5 -2.5) (end -2.5 -2.5) (layer F.SilkS) (width 0.15))
    (pad 1 smd rect (at -2.45 -1.65 270) (size 1.5 0.9)
      (layers F.Cu F.Mask)
      (net 4 VCC)
    )
    (pad 2 smd rect (at -2.45 1.65 270) (size 1.5 0.9)
      (layers F.Cu F.Mask)
      (net 2 /DOUT)
    )
    (pad 3 smd rect (at 2.45 1.65 270) (size 1.5 0.9)
      (layers F.Cu F.Mask)
      (net 3 GND)
    )
    (pad 4 smd rect (at 2.45 -1.65 270) (size 1.5 0.9)
      (layers F.Cu F.Mask)
      (net 1 /DIN)
    )
  )

  (module SMD-0805 (layer B.Cu) (tedit 53CAF6FD) (tstamp 53C83786)
    (at 0 0 270)
    (path /53C83568)
    (attr smd)
    (fp_text reference C1 (at 0 0 360) (layer B.SilkS)
      (effects (font (size 0.5 0.5) (thickness 0.1)) (justify mirror))
    )
    (fp_text value 0.1uF (at 0 1.27 270) (layer B.SilkS) hide
      (effects (font (size 0.5 0.5) (thickness 0.1)) (justify mirror))
    )
    (fp_line (start -0.508 -0.762) (end -1.524 -0.762) (layer B.SilkS) (width 0.09906))
    (fp_line (start -1.524 -0.762) (end -1.524 0.762) (layer B.SilkS) (width 0.09906))
    (fp_line (start -1.524 0.762) (end -0.508 0.762) (layer B.SilkS) (width 0.09906))
    (fp_line (start 0.508 0.762) (end 1.524 0.762) (layer B.SilkS) (width 0.09906))
    (fp_line (start 1.524 0.762) (end 1.524 -0.762) (layer B.SilkS) (width 0.09906))
    (fp_line (start 1.524 -0.762) (end 0.508 -0.762) (layer B.SilkS) (width 0.09906))
    (pad 1 smd rect (at -0.9525 0 270) (size 0.889 1.397)
      (layers B.Cu B.Mask)
      (net 4 VCC)
    )
    (pad 2 smd rect (at 0.9525 0 270) (size 0.889 1.397)
      (layers B.Cu B.Mask)
      (net 3 GND)
    )
    (model smd/chip_cms.wrl
      (at (xyz 0 0 0))
      (scale (xyz 0.1 0.1 0.1))
      (rotate (xyz 0 0 0))
    )
  )

  (module PIN_HDR-3 (layer F.Cu) (tedit 53CAF847) (tstamp 53C83792)
    (at 3.81 0 90)
    (path /53C834F6)
    (fp_text reference K2 (at 0 -1.27 90) (layer F.SilkS) hide
      (effects (font (size 0.5 0.5) (thickness 0.1)))
    )
    (fp_text value CONN_3 (at 0 1.27 90) (layer F.SilkS) hide
      (effects (font (size 0.5 0.5) (thickness 0.1)))
    )
    (pad 1 thru_hole circle (at -2.54 0 90) (size 1.4224 1.4224) (drill 0.8636)
      (layers *.Cu *.Mask F.SilkS)
      (net 3 GND)
    )
    (pad 2 thru_hole circle (at 0 0 90) (size 1.4224 1.4224) (drill 0.8636)
      (layers *.Cu *.Mask F.SilkS)
      (net 2 /DOUT)
    )
    (pad 3 thru_hole circle (at 2.54 0 90) (size 1.4224 1.4224) (drill 0.8636)
      (layers *.Cu *.Mask F.SilkS)
      (net 4 VCC)
    )
  )

  (module PIN_HDR-3 (layer F.Cu) (tedit 53CAF847) (tstamp 53C8379E)
    (at -3.81 0 270)
    (path /53C83510)
    (fp_text reference K1 (at 0 -1.27 270) (layer F.SilkS) hide
      (effects (font (size 0.5 0.5) (thickness 0.1)))
    )
    (fp_text value CONN_3 (at 0 1.27 270) (layer F.SilkS) hide
      (effects (font (size 0.5 0.5) (thickness 0.1)))
    )
    (pad 1 thru_hole circle (at -2.54 0 270) (size 1.4224 1.4224) (drill 0.8636)
      (layers *.Cu *.Mask F.SilkS)
      (net 4 VCC)
    )
    (pad 2 thru_hole circle (at 0 0 270) (size 1.4224 1.4224) (drill 0.8636)
      (layers *.Cu *.Mask F.SilkS)
      (net 1 /DIN)
    )
    (pad 3 thru_hole circle (at 2.54 0 270) (size 1.4224 1.4224) (drill 0.8636)
      (layers *.Cu *.Mask F.SilkS)
      (net 3 GND)
    )
  )

  (dimension 7.62 (width 0.3) (layer Dwgs.User)
    (gr_text "0.3000 in" (at 10.24 0 90) (layer Dwgs.User)
      (effects (font (size 1.5 1.5) (thickness 0.3)))
    )
    (feature1 (pts (xy 7.62 -3.81) (xy 11.59 -3.81)))
    (feature2 (pts (xy 7.62 3.81) (xy 11.59 3.81)))
    (crossbar (pts (xy 8.89 3.81) (xy 8.89 -3.81)))
    (arrow1a (pts (xy 8.89 -3.81) (xy 9.47642 -2.683497)))
    (arrow1b (pts (xy 8.89 -3.81) (xy 8.30358 -2.683497)))
    (arrow2a (pts (xy 8.89 3.81) (xy 9.47642 2.683497)))
    (arrow2b (pts (xy 8.89 3.81) (xy 8.30358 2.683497)))
  )
  (dimension 10.16 (width 0.3) (layer Dwgs.User)
    (gr_text "0.4000 in" (at 0 8.969999) (layer Dwgs.User)
      (effects (font (size 1.5 1.5) (thickness 0.3)))
    )
    (feature1 (pts (xy 5.08 6.35) (xy 5.08 10.319999)))
    (feature2 (pts (xy -5.08 6.35) (xy -5.08 10.319999)))
    (crossbar (pts (xy -5.08 7.619999) (xy 5.08 7.619999)))
    (arrow1a (pts (xy 5.08 7.619999) (xy 3.953497 8.206419)))
    (arrow1b (pts (xy 5.08 7.619999) (xy 3.953497 7.033579)))
    (arrow2a (pts (xy -5.08 7.619999) (xy -3.953497 8.206419)))
    (arrow2b (pts (xy -5.08 7.619999) (xy -3.953497 7.033579)))
  )
  (gr_line (start 3.8 -1) (end 3.6 -0.8) (angle 90) (layer F.SilkS) (width 0.2))
  (gr_line (start 3.8 -1) (end 3.6 -1.2) (angle 90) (layer F.SilkS) (width 0.2))
  (gr_line (start 3 -1) (end 3.8 -1) (angle 90) (layer F.SilkS) (width 0.2))
  (gr_line (start -3 -1) (end -3.2 -0.8) (angle 90) (layer F.SilkS) (width 0.2))
  (gr_line (start -3 -1) (end -3.2 -1.2) (angle 90) (layer F.SilkS) (width 0.2))
  (gr_line (start -3.8 -1) (end -3 -1) (angle 90) (layer F.SilkS) (width 0.2))
  (gr_text + (at -2.7 -3.2) (layer F.SilkS)
    (effects (font (size 0.9 0.9) (thickness 0.2)))
  )
  (gr_text - (at -2.7 3.1) (layer F.SilkS)
    (effects (font (size 0.9 0.9) (thickness 0.2)))
  )
  (gr_text + (at 2.7 -3.2) (layer F.SilkS)
    (effects (font (size 0.9 0.9) (thickness 0.2)))
  )
  (gr_text - (at 2.7 3.1) (layer F.SilkS)
    (effects (font (size 0.9 0.9) (thickness 0.2)))
  )
  (gr_text DOUT (at 2.4 0 90) (layer B.SilkS)
    (effects (font (size 0.75 0.75) (thickness 0.15)) (justify mirror))
  )
  (gr_text DIN (at -2.2 0 90) (layer B.SilkS)
    (effects (font (size 0.75 0.75) (thickness 0.15)) (justify mirror))
  )
  (gr_line (start -1.27 -2.54) (end -2.54 -2.54) (angle 90) (layer B.SilkS) (width 0.15))
  (gr_line (start 1.27 -2.54) (end 2.54 -2.54) (angle 90) (layer B.SilkS) (width 0.15))
  (gr_line (start -1.27 2.54) (end -2.54 2.54) (angle 90) (layer B.SilkS) (width 0.15))
  (gr_line (start 1.27 2.54) (end 2.54 2.54) (angle 90) (layer B.SilkS) (width 0.15))
  (gr_text GND (at 0 2.6) (layer B.SilkS)
    (effects (font (size 0.75 0.75) (thickness 0.15)) (justify mirror))
  )
  (gr_text VCC (at 0 -2.5) (layer B.SilkS)
    (effects (font (size 0.75 0.75) (thickness 0.15)) (justify mirror))
  )
  (gr_line (start 5.08 3.81) (end 5.08 -3.81) (angle 90) (layer Edge.Cuts) (width 0.0254))
  (gr_line (start -5.08 3.81) (end 5.08 3.81) (angle 90) (layer Edge.Cuts) (width 0.0254))
  (gr_line (start -5.08 -3.81) (end -5.08 3.81) (angle 90) (layer Edge.Cuts) (width 0.0254))
  (gr_line (start 5.08 -3.81) (end -5.08 -3.81) (angle 90) (layer Edge.Cuts) (width 0.0254))

  (segment (start -3.81 0) (end -0.8 0) (width 0.508) (layer F.Cu) (net 1))
  (segment (start -0.8 0) (end 1.65 2.45) (width 0.508) (layer F.Cu) (net 1) (tstamp 53C83AB9))
  (segment (start 3.81 0) (end 0.8 0) (width 0.508) (layer F.Cu) (net 2))
  (segment (start 0.8 0) (end -1.65 -2.45) (width 0.508) (layer F.Cu) (net 2) (tstamp 53C83ABF))
  (segment (start 0 -0.9525) (end 1.0795 -0.9525) (width 0.508) (layer B.Cu) (net 4))
  (segment (start 1.65 -1.523) (end 1.65 -2.45) (width 0.508) (layer F.Cu) (net 4) (tstamp 54D82213))
  (segment (start 1.27 -1.143) (end 1.65 -1.523) (width 0.508) (layer F.Cu) (net 4) (tstamp 54D82212))
  (via (at 1.27 -1.143) (size 0.6858) (layers F.Cu B.Cu) (net 4))
  (segment (start 1.0795 -0.9525) (end 1.27 -1.143) (width 0.508) (layer B.Cu) (net 4) (tstamp 54D8220A))
  (segment (start -3.81 -2.54) (end -1.5875 -2.54) (width 0.508) (layer B.Cu) (net 4))
  (segment (start -1.5875 -2.54) (end 0 -0.9525) (width 0.508) (layer B.Cu) (net 4) (tstamp 54D820A7))
  (segment (start -3.81 -2.54) (end 3.81 -2.54) (width 0.508) (layer B.Cu) (net 4))

  (zone (net 3) (net_name GND) (layer B.Cu) (tstamp 53C83B06) (hatch edge 0.508)
    (connect_pads (clearance 0.1778))
    (min_thickness 0.1778)
    (fill (arc_segments 32) (thermal_gap 0.1778) (thermal_bridge_width 0.381))
    (polygon
      (pts
        (xy -5.08 -3.81) (xy -5.08 3.81) (xy 5.08 3.81) (xy 5.08 -3.81)
      )
    )
    (filled_polygon
      (pts
        (xy 4.8006 3.5306) (xy 4.790761 3.5306) (xy 4.790761 2.479417) (xy 4.787941 2.461879) (xy 4.787941 -0.095888)
        (xy 4.787941 -2.635888) (xy 4.750692 -2.824012) (xy 4.677612 -3.001317) (xy 4.571484 -3.161052) (xy 4.436353 -3.29713)
        (xy 4.277363 -3.40437) (xy 4.100572 -3.478686) (xy 3.912713 -3.517248) (xy 3.720942 -3.518587) (xy 3.532563 -3.482652)
        (xy 3.354751 -3.410811) (xy 3.19428 -3.305802) (xy 3.057261 -3.171623) (xy 2.98131 -3.0607) (xy -1.5875 -3.0607)
        (xy -2.981843 -3.0607) (xy -3.048516 -3.161052) (xy -3.183647 -3.29713) (xy -3.342637 -3.40437) (xy -3.519428 -3.478686)
        (xy -3.707287 -3.517248) (xy -3.899058 -3.518587) (xy -4.087437 -3.482652) (xy -4.265249 -3.410811) (xy -4.42572 -3.305802)
        (xy -4.562739 -3.171623) (xy -4.671086 -3.013386) (xy -4.746635 -2.837118) (xy -4.786507 -2.649533) (xy -4.789185 -2.457776)
        (xy -4.754566 -2.26915) (xy -4.683968 -2.090841) (xy -4.580081 -1.929641) (xy -4.446863 -1.791689) (xy -4.289386 -1.68224)
        (xy -4.11365 -1.605462) (xy -3.926347 -1.564281) (xy -3.734614 -1.560265) (xy -3.545751 -1.593567) (xy -3.366954 -1.662918)
        (xy -3.205032 -1.765676) (xy -3.066153 -1.897929) (xy -2.980535 -2.0193) (xy -1.803182 -2.0193) (xy -0.96535 -1.181468)
        (xy -0.965211 -0.481849) (xy -0.955052 -0.430543) (xy -0.935121 -0.382187) (xy -0.906178 -0.338623) (xy -0.869323 -0.30151)
        (xy -0.825963 -0.272263) (xy -0.777747 -0.251995) (xy -0.726513 -0.241478) (xy -0.674212 -0.241113) (xy 0.724651 -0.241289)
        (xy 0.775957 -0.251448) (xy 0.824313 -0.271379) (xy 0.867877 -0.300322) (xy 0.90499 -0.337177) (xy 0.934237 -0.380537)
        (xy 0.954505 -0.428753) (xy 0.95513 -0.4318) (xy 1.0795 -0.4318) (xy 1.127349 -0.436492) (xy 1.175284 -0.440686)
        (xy 1.177913 -0.44145) (xy 1.180638 -0.441717) (xy 1.226654 -0.455611) (xy 1.272871 -0.469037) (xy 1.275304 -0.470299)
        (xy 1.277923 -0.471089) (xy 1.320367 -0.493658) (xy 1.363093 -0.515804) (xy 1.365232 -0.517513) (xy 1.367651 -0.518798)
        (xy 1.402675 -0.547364) (xy 1.434727 -0.553015) (xy 1.546185 -0.596247) (xy 1.647123 -0.660304) (xy 1.733697 -0.742747)
        (xy 1.802609 -0.840436) (xy 1.851234 -0.949649) (xy 1.87772 -1.066227) (xy 1.879627 -1.202774) (xy 1.856406 -1.320046)
        (xy 1.81085 -1.430575) (xy 1.744692 -1.53015) (xy 1.660454 -1.614978) (xy 1.561344 -1.681829) (xy 1.451136 -1.728156)
        (xy 1.334029 -1.752194) (xy 1.214483 -1.753029) (xy 1.097052 -1.730628) (xy 0.986208 -1.685844) (xy 0.886174 -1.620383)
        (xy 0.869086 -1.60365) (xy 0.825963 -1.632737) (xy 0.777747 -1.653005) (xy 0.726513 -1.663522) (xy 0.674212 -1.663887)
        (xy 0.025075 -1.663806) (xy -0.330419 -2.0193) (xy 2.982137 -2.0193) (xy 3.039919 -1.929641) (xy 3.173137 -1.791689)
        (xy 3.330614 -1.68224) (xy 3.50635 -1.605462) (xy 3.693653 -1.564281) (xy 3.885386 -1.560265) (xy 4.074249 -1.593567)
        (xy 4.253046 -1.662918) (xy 4.414968 -1.765676) (xy 4.553847 -1.897929) (xy 4.664393 -2.054637) (xy 4.742395 -2.229833)
        (xy 4.784883 -2.416844) (xy 4.787941 -2.635888) (xy 4.787941 -0.095888) (xy 4.750692 -0.284012) (xy 4.677612 -0.461317)
        (xy 4.571484 -0.621052) (xy 4.436353 -0.75713) (xy 4.277363 -0.86437) (xy 4.100572 -0.938686) (xy 3.912713 -0.977248)
        (xy 3.720942 -0.978587) (xy 3.532563 -0.942652) (xy 3.354751 -0.870811) (xy 3.19428 -0.765802) (xy 3.057261 -0.631623)
        (xy 2.948914 -0.473386) (xy 2.873365 -0.297118) (xy 2.833493 -0.109533) (xy 2.830815 0.082224) (xy 2.865434 0.27085)
        (xy 2.936032 0.449159) (xy 3.039919 0.610359) (xy 3.173137 0.748311) (xy 3.330614 0.85776) (xy 3.50635 0.934538)
        (xy 3.693653 0.975719) (xy 3.885386 0.979735) (xy 4.074249 0.946433) (xy 4.253046 0.877082) (xy 4.414968 0.774324)
        (xy 4.553847 0.642071) (xy 4.664393 0.485363) (xy 4.742395 0.310167) (xy 4.784883 0.123156) (xy 4.787941 -0.095888)
        (xy 4.787941 2.461879) (xy 4.760315 2.290072) (xy 4.693672 2.110248) (xy 4.660423 2.047717) (xy 4.525523 1.968161)
        (xy 4.381839 2.111845) (xy 4.381839 1.824477) (xy 4.302283 1.689577) (xy 4.127727 1.610155) (xy 3.941068 1.56615)
        (xy 3.749417 1.559239) (xy 3.560072 1.589685) (xy 3.380248 1.656328) (xy 3.317717 1.689577) (xy 3.238161 1.824477)
        (xy 3.81 2.396316) (xy 4.381839 1.824477) (xy 4.381839 2.111845) (xy 3.953684 2.54) (xy 4.525523 3.111839)
        (xy 4.660423 3.032283) (xy 4.739845 2.857727) (xy 4.78385 2.671068) (xy 4.790761 2.479417) (xy 4.790761 3.5306)
        (xy 4.381839 3.5306) (xy 4.381839 3.255523) (xy 3.81 2.683684) (xy 3.666316 2.827368) (xy 3.666316 2.54)
        (xy 3.094477 1.968161) (xy 2.959577 2.047717) (xy 2.880155 2.222273) (xy 2.83615 2.408932) (xy 2.829239 2.600583)
        (xy 2.859685 2.789928) (xy 2.926328 2.969752) (xy 2.959577 3.032283) (xy 3.094477 3.111839) (xy 3.666316 2.54)
        (xy 3.666316 2.827368) (xy 3.238161 3.255523) (xy 3.317717 3.390423) (xy 3.492273 3.469845) (xy 3.678932 3.51385)
        (xy 3.870583 3.520761) (xy 4.059928 3.490315) (xy 4.239752 3.423672) (xy 4.302283 3.390423) (xy 4.381839 3.255523)
        (xy 4.381839 3.5306) (xy 0.965211 3.5306) (xy 0.965211 1.423151) (xy 0.965211 0.481849) (xy 0.955052 0.430543)
        (xy 0.935121 0.382187) (xy 0.906178 0.338623) (xy 0.869323 0.30151) (xy 0.825963 0.272263) (xy 0.777747 0.251995)
        (xy 0.726513 0.241478) (xy 0.674212 0.241113) (xy 0.168275 0.2413) (xy 0.1016 0.307975) (xy 0.1016 0.8509)
        (xy 0.898525 0.8509) (xy 0.9652 0.784225) (xy 0.965211 0.481849) (xy 0.965211 1.423151) (xy 0.9652 1.120775)
        (xy 0.898525 1.0541) (xy 0.1016 1.0541) (xy 0.1016 1.597025) (xy 0.168275 1.6637) (xy 0.674212 1.663887)
        (xy 0.726513 1.663522) (xy 0.777747 1.653005) (xy 0.825963 1.632737) (xy 0.869323 1.60349) (xy 0.906178 1.566377)
        (xy 0.935121 1.522813) (xy 0.955052 1.474457) (xy 0.965211 1.423151) (xy 0.965211 3.5306) (xy -0.1016 3.5306)
        (xy -0.1016 1.597025) (xy -0.1016 1.0541) (xy -0.1016 0.8509) (xy -0.1016 0.307975) (xy -0.168275 0.2413)
        (xy -0.674212 0.241113) (xy -0.726513 0.241478) (xy -0.777747 0.251995) (xy -0.825963 0.272263) (xy -0.869323 0.30151)
        (xy -0.906178 0.338623) (xy -0.935121 0.382187) (xy -0.955052 0.430543) (xy -0.965211 0.481849) (xy -0.9652 0.784225)
        (xy -0.898525 0.8509) (xy -0.1016 0.8509) (xy -0.1016 1.0541) (xy -0.898525 1.0541) (xy -0.9652 1.120775)
        (xy -0.965211 1.423151) (xy -0.955052 1.474457) (xy -0.935121 1.522813) (xy -0.906178 1.566377) (xy -0.869323 1.60349)
        (xy -0.825963 1.632737) (xy -0.777747 1.653005) (xy -0.726513 1.663522) (xy -0.674212 1.663887) (xy -0.168275 1.6637)
        (xy -0.1016 1.597025) (xy -0.1016 3.5306) (xy -2.829239 3.5306) (xy -2.829239 2.479417) (xy -2.832059 2.461879)
        (xy -2.832059 -0.095888) (xy -2.869308 -0.284012) (xy -2.942388 -0.461317) (xy -3.048516 -0.621052) (xy -3.183647 -0.75713)
        (xy -3.342637 -0.86437) (xy -3.519428 -0.938686) (xy -3.707287 -0.977248) (xy -3.899058 -0.978587) (xy -4.087437 -0.942652)
        (xy -4.265249 -0.870811) (xy -4.42572 -0.765802) (xy -4.562739 -0.631623) (xy -4.671086 -0.473386) (xy -4.746635 -0.297118)
        (xy -4.786507 -0.109533) (xy -4.789185 0.082224) (xy -4.754566 0.27085) (xy -4.683968 0.449159) (xy -4.580081 0.610359)
        (xy -4.446863 0.748311) (xy -4.289386 0.85776) (xy -4.11365 0.934538) (xy -3.926347 0.975719) (xy -3.734614 0.979735)
        (xy -3.545751 0.946433) (xy -3.366954 0.877082) (xy -3.205032 0.774324) (xy -3.066153 0.642071) (xy -2.955607 0.485363)
        (xy -2.877605 0.310167) (xy -2.835117 0.123156) (xy -2.832059 -0.095888) (xy -2.832059 2.461879) (xy -2.859685 2.290072)
        (xy -2.926328 2.110248) (xy -2.959577 2.047717) (xy -3.094477 1.968161) (xy -3.238161 2.111845) (xy -3.238161 1.824477)
        (xy -3.317717 1.689577) (xy -3.492273 1.610155) (xy -3.678932 1.56615) (xy -3.870583 1.559239) (xy -4.059928 1.589685)
        (xy -4.239752 1.656328) (xy -4.302283 1.689577) (xy -4.381839 1.824477) (xy -3.81 2.396316) (xy -3.238161 1.824477)
        (xy -3.238161 2.111845) (xy -3.666316 2.54) (xy -3.094477 3.111839) (xy -2.959577 3.032283) (xy -2.880155 2.857727)
        (xy -2.83615 2.671068) (xy -2.829239 2.479417) (xy -2.829239 3.5306) (xy -3.238161 3.5306) (xy -3.238161 3.255523)
        (xy -3.81 2.683684) (xy -3.953684 2.827368) (xy -3.953684 2.54) (xy -4.525523 1.968161) (xy -4.660423 2.047717)
        (xy -4.739845 2.222273) (xy -4.78385 2.408932) (xy -4.790761 2.600583) (xy -4.760315 2.789928) (xy -4.693672 2.969752)
        (xy -4.660423 3.032283) (xy -4.525523 3.111839) (xy -3.953684 2.54) (xy -3.953684 2.827368) (xy -4.381839 3.255523)
        (xy -4.302283 3.390423) (xy -4.127727 3.469845) (xy -3.941068 3.51385) (xy -3.749417 3.520761) (xy -3.560072 3.490315)
        (xy -3.380248 3.423672) (xy -3.317717 3.390423) (xy -3.238161 3.255523) (xy -3.238161 3.5306) (xy -4.8006 3.5306)
        (xy -4.8006 -3.5306) (xy 4.8006 -3.5306) (xy 4.8006 3.5306)
      )
    )
  )
  (zone (net 3) (net_name GND) (layer F.Cu) (tstamp 53C83B17) (hatch edge 0.508)
    (connect_pads (clearance 0.1778))
    (min_thickness 0.1778)
    (fill (arc_segments 32) (thermal_gap 0.1778) (thermal_bridge_width 0.381))
    (polygon
      (pts
        (xy -5.08 -3.81) (xy -5.08 3.81) (xy 5.08 3.81) (xy 5.08 -3.81)
      )
    )
    (filled_polygon
      (pts
        (xy 4.8006 3.5306) (xy 4.790761 3.5306) (xy 4.790761 2.479417) (xy 4.787941 2.461879) (xy 4.787941 -0.095888)
        (xy 4.787941 -2.635888) (xy 4.750692 -2.824012) (xy 4.677612 -3.001317) (xy 4.571484 -3.161052) (xy 4.436353 -3.29713)
        (xy 4.277363 -3.40437) (xy 4.100572 -3.478686) (xy 3.912713 -3.517248) (xy 3.720942 -3.518587) (xy 3.532563 -3.482652)
        (xy 3.354751 -3.410811) (xy 3.19428 -3.305802) (xy 3.057261 -3.171623) (xy 2.948914 -3.013386) (xy 2.873365 -2.837118)
        (xy 2.833493 -2.649533) (xy 2.830815 -2.457776) (xy 2.865434 -2.26915) (xy 2.936032 -2.090841) (xy 3.039919 -1.929641)
        (xy 3.173137 -1.791689) (xy 3.330614 -1.68224) (xy 3.50635 -1.605462) (xy 3.693653 -1.564281) (xy 3.885386 -1.560265)
        (xy 4.074249 -1.593567) (xy 4.253046 -1.662918) (xy 4.414968 -1.765676) (xy 4.553847 -1.897929) (xy 4.664393 -2.054637)
        (xy 4.742395 -2.229833) (xy 4.784883 -2.416844) (xy 4.787941 -2.635888) (xy 4.787941 -0.095888) (xy 4.750692 -0.284012)
        (xy 4.677612 -0.461317) (xy 4.571484 -0.621052) (xy 4.436353 -0.75713) (xy 4.277363 -0.86437) (xy 4.100572 -0.938686)
        (xy 3.912713 -0.977248) (xy 3.720942 -0.978587) (xy 3.532563 -0.942652) (xy 3.354751 -0.870811) (xy 3.19428 -0.765802)
        (xy 3.057261 -0.631623) (xy 2.98131 -0.5207) (xy 2.366887 -0.5207) (xy 2.366887 -1.724288) (xy 2.366711 -3.226151)
        (xy 2.356552 -3.277457) (xy 2.336621 -3.325813) (xy 2.307678 -3.369377) (xy 2.270823 -3.40649) (xy 2.227463 -3.435737)
        (xy 2.179247 -3.456005) (xy 2.128013 -3.466522) (xy 2.075712 -3.466887) (xy 1.173849 -3.466711) (xy 1.122543 -3.456552)
        (xy 1.074187 -3.436621) (xy 1.030623 -3.407678) (xy 0.99351 -3.370823) (xy 0.964263 -3.327463) (xy 0.943995 -3.279247)
        (xy 0.933478 -3.228013) (xy 0.933113 -3.175712) (xy 0.933289 -1.673849) (xy 0.937256 -1.653811) (xy 0.886174 -1.620383)
        (xy 0.800759 -1.53674) (xy 0.733218 -1.438098) (xy 0.686123 -1.328217) (xy 0.661267 -1.21128) (xy 0.659598 -1.091743)
        (xy 0.681179 -0.974158) (xy 0.725188 -0.863005) (xy 0.789949 -0.762516) (xy 0.872994 -0.67652) (xy 0.971162 -0.608292)
        (xy 1.080712 -0.56043) (xy 1.197472 -0.534759) (xy 1.316994 -0.532255) (xy 1.434727 -0.553015) (xy 1.546185 -0.596247)
        (xy 1.647123 -0.660304) (xy 1.733697 -0.742747) (xy 1.802609 -0.840436) (xy 1.851234 -0.949649) (xy 1.862465 -0.999085)
        (xy 2.01819 -1.154809) (xy 2.04869 -1.191941) (xy 2.079637 -1.228822) (xy 2.080957 -1.231225) (xy 2.082693 -1.233337)
        (xy 2.105387 -1.275662) (xy 2.128594 -1.317874) (xy 2.129423 -1.320488) (xy 2.130715 -1.322897) (xy 2.144768 -1.368864)
        (xy 2.159321 -1.41474) (xy 2.159626 -1.417461) (xy 2.160427 -1.42008) (xy 2.162499 -1.440487) (xy 2.177457 -1.443448)
        (xy 2.225813 -1.463379) (xy 2.269377 -1.492322) (xy 2.30649 -1.529177) (xy 2.335737 -1.572537) (xy 2.356005 -1.620753)
        (xy 2.366522 -1.671987) (xy 2.366887 -1.724288) (xy 2.366887 -0.5207) (xy 1.015681 -0.5207) (xy -0.933201 -2.469583)
        (xy -0.933289 -3.226151) (xy -0.943448 -3.277457) (xy -0.963379 -3.325813) (xy -0.992322 -3.369377) (xy -1.029177 -3.40649)
        (xy -1.072537 -3.435737) (xy -1.120753 -3.456005) (xy -1.171987 -3.466522) (xy -1.224288 -3.466887) (xy -2.126151 -3.466711)
        (xy -2.177457 -3.456552) (xy -2.225813 -3.436621) (xy -2.269377 -3.407678) (xy -2.30649 -3.370823) (xy -2.335737 -3.327463)
        (xy -2.356005 -3.279247) (xy -2.366522 -3.228013) (xy -2.366887 -3.175712) (xy -2.366711 -1.673849) (xy -2.356552 -1.622543)
        (xy -2.336621 -1.574187) (xy -2.307678 -1.530623) (xy -2.270823 -1.49351) (xy -2.227463 -1.464263) (xy -2.179247 -1.443995)
        (xy -2.128013 -1.433478) (xy -2.075712 -1.433113) (xy -1.369633 -1.433251) (xy 0.431809 0.36819) (xy 0.46894 0.39869)
        (xy 0.505822 0.429637) (xy 0.508224 0.430957) (xy 0.510337 0.432693) (xy 0.552661 0.455387) (xy 0.594874 0.478594)
        (xy 0.597487 0.479423) (xy 0.599897 0.480715) (xy 0.645863 0.494768) (xy 0.69174 0.509321) (xy 0.69446 0.509626)
        (xy 0.69708 0.510427) (xy 0.744912 0.515285) (xy 0.79273 0.520649) (xy 0.79809 0.520686) (xy 0.798183 0.520696)
        (xy 0.798269 0.520687) (xy 0.8 0.5207) (xy 2.982137 0.5207) (xy 3.039919 0.610359) (xy 3.173137 0.748311)
        (xy 3.330614 0.85776) (xy 3.50635 0.934538) (xy 3.693653 0.975719) (xy 3.885386 0.979735) (xy 4.074249 0.946433)
        (xy 4.253046 0.877082) (xy 4.414968 0.774324) (xy 4.553847 0.642071) (xy 4.664393 0.485363) (xy 4.742395 0.310167)
        (xy 4.784883 0.123156) (xy 4.787941 -0.095888) (xy 4.787941 2.461879) (xy 4.760315 2.290072) (xy 4.693672 2.110248)
        (xy 4.660423 2.047717) (xy 4.525523 1.968161) (xy 4.381839 2.111845) (xy 4.381839 1.824477) (xy 4.302283 1.689577)
        (xy 4.127727 1.610155) (xy 3.941068 1.56615) (xy 3.749417 1.559239) (xy 3.560072 1.589685) (xy 3.380248 1.656328)
        (xy 3.317717 1.689577) (xy 3.238161 1.824477) (xy 3.81 2.396316) (xy 4.381839 1.824477) (xy 4.381839 2.111845)
        (xy 3.953684 2.54) (xy 4.525523 3.111839) (xy 4.660423 3.032283) (xy 4.739845 2.857727) (xy 4.78385 2.671068)
        (xy 4.790761 2.479417) (xy 4.790761 3.5306) (xy 4.381839 3.5306) (xy 4.381839 3.255523) (xy 3.81 2.683684)
        (xy 3.666316 2.827368) (xy 3.666316 2.54) (xy 3.094477 1.968161) (xy 2.959577 2.047717) (xy 2.880155 2.222273)
        (xy 2.83615 2.408932) (xy 2.829239 2.600583) (xy 2.859685 2.789928) (xy 2.926328 2.969752) (xy 2.959577 3.032283)
        (xy 3.094477 3.111839) (xy 3.666316 2.54) (xy 3.666316 2.827368) (xy 3.238161 3.255523) (xy 3.317717 3.390423)
        (xy 3.492273 3.469845) (xy 3.678932 3.51385) (xy 3.870583 3.520761) (xy 4.059928 3.490315) (xy 4.239752 3.423672)
        (xy 4.302283 3.390423) (xy 4.381839 3.255523) (xy 4.381839 3.5306) (xy 2.366887 3.5306) (xy 2.366887 3.175712)
        (xy 2.366711 1.673849) (xy 2.356552 1.622543) (xy 2.336621 1.574187) (xy 2.307678 1.530623) (xy 2.270823 1.49351)
        (xy 2.227463 1.464263) (xy 2.179247 1.443995) (xy 2.128013 1.433478) (xy 2.075712 1.433113) (xy 1.369632 1.43325)
        (xy -0.431809 -0.368191) (xy -0.468971 -0.398716) (xy -0.505822 -0.429637) (xy -0.508225 -0.430958) (xy -0.510337 -0.432693)
        (xy -0.552662 -0.455388) (xy -0.594874 -0.478594) (xy -0.597488 -0.479424) (xy -0.599897 -0.480715) (xy -0.645864 -0.494769)
        (xy -0.69174 -0.509321) (xy -0.694461 -0.509627) (xy -0.69708 -0.510427) (xy -0.744913 -0.515286) (xy -0.79273 -0.520649)
        (xy -0.798091 -0.520687) (xy -0.798183 -0.520696) (xy -0.79827 -0.520688) (xy -0.8 -0.5207) (xy -2.832059 -0.5207)
        (xy -2.832059 -2.635888) (xy -2.869308 -2.824012) (xy -2.942388 -3.001317) (xy -3.048516 -3.161052) (xy -3.183647 -3.29713)
        (xy -3.342637 -3.40437) (xy -3.519428 -3.478686) (xy -3.707287 -3.517248) (xy -3.899058 -3.518587) (xy -4.087437 -3.482652)
        (xy -4.265249 -3.410811) (xy -4.42572 -3.305802) (xy -4.562739 -3.171623) (xy -4.671086 -3.013386) (xy -4.746635 -2.837118)
        (xy -4.786507 -2.649533) (xy -4.789185 -2.457776) (xy -4.754566 -2.26915) (xy -4.683968 -2.090841) (xy -4.580081 -1.929641)
        (xy -4.446863 -1.791689) (xy -4.289386 -1.68224) (xy -4.11365 -1.605462) (xy -3.926347 -1.564281) (xy -3.734614 -1.560265)
        (xy -3.545751 -1.593567) (xy -3.366954 -1.662918) (xy -3.205032 -1.765676) (xy -3.066153 -1.897929) (xy -2.955607 -2.054637)
        (xy -2.877605 -2.229833) (xy -2.835117 -2.416844) (xy -2.832059 -2.635888) (xy -2.832059 -0.5207) (xy -2.981843 -0.5207)
        (xy -3.048516 -0.621052) (xy -3.183647 -0.75713) (xy -3.342637 -0.86437) (xy -3.519428 -0.938686) (xy -3.707287 -0.977248)
        (xy -3.899058 -0.978587) (xy -4.087437 -0.942652) (xy -4.265249 -0.870811) (xy -4.42572 -0.765802) (xy -4.562739 -0.631623)
        (xy -4.671086 -0.473386) (xy -4.746635 -0.297118) (xy -4.786507 -0.109533) (xy -4.789185 0.082224) (xy -4.754566 0.27085)
        (xy -4.683968 0.449159) (xy -4.580081 0.610359) (xy -4.446863 0.748311) (xy -4.289386 0.85776) (xy -4.11365 0.934538)
        (xy -3.926347 0.975719) (xy -3.734614 0.979735) (xy -3.545751 0.946433) (xy -3.366954 0.877082) (xy -3.205032 0.774324)
        (xy -3.066153 0.642071) (xy -2.980535 0.5207) (xy -1.015682 0.5207) (xy 0.9332 2.469581) (xy 0.933289 3.226151)
        (xy 0.943448 3.277457) (xy 0.963379 3.325813) (xy 0.992322 3.369377) (xy 1.029177 3.40649) (xy 1.072537 3.435737)
        (xy 1.120753 3.456005) (xy 1.171987 3.466522) (xy 1.224288 3.466887) (xy 2.126151 3.466711) (xy 2.177457 3.456552)
        (xy 2.225813 3.436621) (xy 2.269377 3.407678) (xy 2.30649 3.370823) (xy 2.335737 3.327463) (xy 2.356005 3.279247)
        (xy 2.366522 3.228013) (xy 2.366887 3.175712) (xy 2.366887 3.5306) (xy -0.933289 3.5306) (xy -0.933289 3.226151)
        (xy -0.933289 1.673849) (xy -0.943448 1.622543) (xy -0.963379 1.574187) (xy -0.992322 1.530623) (xy -1.029177 1.49351)
        (xy -1.072537 1.464263) (xy -1.120753 1.443995) (xy -1.171987 1.433478) (xy -1.224288 1.433113) (xy -1.481725 1.4333)
        (xy -1.5484 1.499975) (xy -1.5484 2.3484) (xy -0.999975 2.3484) (xy -0.9333 2.281725) (xy -0.933289 1.673849)
        (xy -0.933289 3.226151) (xy -0.9333 2.618275) (xy -0.999975 2.5516) (xy -1.5484 2.5516) (xy -1.5484 3.400025)
        (xy -1.481725 3.4667) (xy -1.224288 3.466887) (xy -1.171987 3.466522) (xy -1.120753 3.456005) (xy -1.072537 3.435737)
        (xy -1.029177 3.40649) (xy -0.992322 3.369377) (xy -0.963379 3.325813) (xy -0.943448 3.277457) (xy -0.933289 3.226151)
        (xy -0.933289 3.5306) (xy -1.7516 3.5306) (xy -1.7516 3.400025) (xy -1.7516 2.5516) (xy -1.7516 2.3484)
        (xy -1.7516 1.499975) (xy -1.818275 1.4333) (xy -2.075712 1.433113) (xy -2.128013 1.433478) (xy -2.179247 1.443995)
        (xy -2.227463 1.464263) (xy -2.270823 1.49351) (xy -2.307678 1.530623) (xy -2.336621 1.574187) (xy -2.356552 1.622543)
        (xy -2.366711 1.673849) (xy -2.3667 2.281725) (xy -2.300025 2.3484) (xy -1.7516 2.3484) (xy -1.7516 2.5516)
        (xy -2.300025 2.5516) (xy -2.3667 2.618275) (xy -2.366711 3.226151) (xy -2.356552 3.277457) (xy -2.336621 3.325813)
        (xy -2.307678 3.369377) (xy -2.270823 3.40649) (xy -2.227463 3.435737) (xy -2.179247 3.456005) (xy -2.128013 3.466522)
        (xy -2.075712 3.466887) (xy -1.818275 3.4667) (xy -1.7516 3.400025) (xy -1.7516 3.5306) (xy -2.829239 3.5306)
        (xy -2.829239 2.479417) (xy -2.859685 2.290072) (xy -2.926328 2.110248) (xy -2.959577 2.047717) (xy -3.094477 1.968161)
        (xy -3.238161 2.111845) (xy -3.238161 1.824477) (xy -3.317717 1.689577) (xy -3.492273 1.610155) (xy -3.678932 1.56615)
        (xy -3.870583 1.559239) (xy -4.059928 1.589685) (xy -4.239752 1.656328) (xy -4.302283 1.689577) (xy -4.381839 1.824477)
        (xy -3.81 2.396316) (xy -3.238161 1.824477) (xy -3.238161 2.111845) (xy -3.666316 2.54) (xy -3.094477 3.111839)
        (xy -2.959577 3.032283) (xy -2.880155 2.857727) (xy -2.83615 2.671068) (xy -2.829239 2.479417) (xy -2.829239 3.5306)
        (xy -3.238161 3.5306) (xy -3.238161 3.255523) (xy -3.81 2.683684) (xy -3.953684 2.827368) (xy -3.953684 2.54)
        (xy -4.525523 1.968161) (xy -4.660423 2.047717) (xy -4.739845 2.222273) (xy -4.78385 2.408932) (xy -4.790761 2.600583)
        (xy -4.760315 2.789928) (xy -4.693672 2.969752) (xy -4.660423 3.032283) (xy -4.525523 3.111839) (xy -3.953684 2.54)
        (xy -3.953684 2.827368) (xy -4.381839 3.255523) (xy -4.302283 3.390423) (xy -4.127727 3.469845) (xy -3.941068 3.51385)
        (xy -3.749417 3.520761) (xy -3.560072 3.490315) (xy -3.380248 3.423672) (xy -3.317717 3.390423) (xy -3.238161 3.255523)
        (xy -3.238161 3.5306) (xy -4.8006 3.5306) (xy -4.8006 -3.5306) (xy 4.8006 -3.5306) (xy 4.8006 3.5306)
      )
    )
  )
)
