EESchema Schematic File Version 2
LIBS:power
LIBS:device
LIBS:transistors
LIBS:conn
LIBS:linear
LIBS:regul
LIBS:74xx
LIBS:cmos4000
LIBS:adc-dac
LIBS:memory
LIBS:xilinx
LIBS:special
LIBS:microcontrollers
LIBS:dsp
LIBS:microchip
LIBS:analog_switches
LIBS:motorola
LIBS:texas
LIBS:intel
LIBS:audio
LIBS:interface
LIBS:digital-audio
LIBS:philips
LIBS:display
LIBS:cypress
LIBS:siliconi
LIBS:opto
LIBS:atmel
LIBS:contrib
LIBS:valves
LIBS:WS2812B
LIBS:circuit-cache
EELAYER 27 0
EELAYER END
$Descr A4 11693 8268
encoding utf-8
Sheet 1 1
Title ""
Date "20 jul 2014"
Rev ""
Comp ""
Comment1 ""
Comment2 ""
Comment3 ""
Comment4 ""
$EndDescr
$Comp
L CONN_3 K2
U 1 1 53C834F6
P 7350 4000
F 0 "K2" V 7300 4000 50  0000 C CNN
F 1 "CONN_3" V 7400 4000 40  0000 C CNN
F 2 "" H 7350 4000 60  0000 C CNN
F 3 "" H 7350 4000 60  0000 C CNN
	1    7350 4000
	1    0    0    1   
$EndComp
$Comp
L CONN_3 K1
U 1 1 53C83510
P 4150 4000
F 0 "K1" V 4100 4000 50  0000 C CNN
F 1 "CONN_3" V 4200 4000 40  0000 C CNN
F 2 "" H 4150 4000 60  0000 C CNN
F 3 "" H 4150 4000 60  0000 C CNN
	1    4150 4000
	-1   0    0    -1  
$EndComp
$Comp
L GND #PWR01
U 1 1 53C83532
P 4550 4150
F 0 "#PWR01" H 4550 4150 30  0001 C CNN
F 1 "GND" H 4550 4080 30  0001 C CNN
F 2 "" H 4550 4150 60  0000 C CNN
F 3 "" H 4550 4150 60  0000 C CNN
	1    4550 4150
	1    0    0    -1  
$EndComp
$Comp
L VCC #PWR02
U 1 1 53C83541
P 4550 3850
F 0 "#PWR02" H 4550 3950 30  0001 C CNN
F 1 "VCC" H 4550 3950 30  0000 C CNN
F 2 "" H 4550 3850 60  0000 C CNN
F 3 "" H 4550 3850 60  0000 C CNN
	1    4550 3850
	1    0    0    -1  
$EndComp
$Comp
L VCC #PWR03
U 1 1 53C8354E
P 6950 3850
F 0 "#PWR03" H 6950 3950 30  0001 C CNN
F 1 "VCC" H 6950 3950 30  0000 C CNN
F 2 "" H 6950 3850 60  0000 C CNN
F 3 "" H 6950 3850 60  0000 C CNN
	1    6950 3850
	1    0    0    -1  
$EndComp
$Comp
L GND #PWR04
U 1 1 53C83554
P 6950 4150
F 0 "#PWR04" H 6950 4150 30  0001 C CNN
F 1 "GND" H 6950 4080 30  0001 C CNN
F 2 "" H 6950 4150 60  0000 C CNN
F 3 "" H 6950 4150 60  0000 C CNN
	1    6950 4150
	1    0    0    -1  
$EndComp
Text Label 4500 4000 0    60   ~ 0
DIN
Text Label 7000 4000 2    60   ~ 0
DOUT
$Comp
L C C1
U 1 1 53C83568
P 4900 4000
F 0 "C1" H 4900 4100 40  0000 L CNN
F 1 "0.1uF" H 4906 3915 40  0000 L CNN
F 2 "~" H 4938 3850 30  0000 C CNN
F 3 "~" H 4900 4000 60  0000 C CNN
	1    4900 4000
	1    0    0    -1  
$EndComp
$Comp
L GND #PWR05
U 1 1 53C83575
P 4900 4200
F 0 "#PWR05" H 4900 4200 30  0001 C CNN
F 1 "GND" H 4900 4130 30  0001 C CNN
F 2 "" H 4900 4200 60  0000 C CNN
F 3 "" H 4900 4200 60  0000 C CNN
	1    4900 4200
	1    0    0    -1  
$EndComp
$Comp
L VCC #PWR06
U 1 1 53C8357C
P 4900 3800
F 0 "#PWR06" H 4900 3900 30  0001 C CNN
F 1 "VCC" H 4900 3900 30  0000 C CNN
F 2 "" H 4900 3800 60  0000 C CNN
F 3 "" H 4900 3800 60  0000 C CNN
	1    4900 3800
	1    0    0    -1  
$EndComp
$Comp
L WS2812B U1
U 1 1 53C836E9
P 5950 4000
F 0 "U1" H 5950 4300 60  0000 C CNN
F 1 "WS2812B" H 5950 3700 60  0000 C CNN
F 2 "~" H 5950 4000 60  0000 C CNN
F 3 "~" H 5950 4000 60  0000 C CNN
	1    5950 4000
	1    0    0    -1  
$EndComp
Text Label 5400 4100 2    60   ~ 0
DOUT
Text Label 6500 3900 0    60   ~ 0
DIN
$Comp
L GND #PWR07
U 1 1 53C83715
P 6550 4150
F 0 "#PWR07" H 6550 4150 30  0001 C CNN
F 1 "GND" H 6550 4080 30  0001 C CNN
F 2 "" H 6550 4150 60  0000 C CNN
F 3 "" H 6550 4150 60  0000 C CNN
	1    6550 4150
	1    0    0    -1  
$EndComp
$Comp
L VCC #PWR08
U 1 1 53C8371C
P 5350 3850
F 0 "#PWR08" H 5350 3950 30  0001 C CNN
F 1 "VCC" H 5350 3950 30  0000 C CNN
F 2 "" H 5350 3850 60  0000 C CNN
F 3 "" H 5350 3850 60  0000 C CNN
	1    5350 3850
	1    0    0    -1  
$EndComp
Wire Wire Line
	4500 3900 4550 3900
Wire Wire Line
	4550 3900 4550 3850
Wire Wire Line
	4500 4100 4550 4100
Wire Wire Line
	4550 4100 4550 4150
Wire Wire Line
	6500 4100 6550 4100
Wire Wire Line
	6550 4100 6550 4150
Wire Wire Line
	5400 3900 5350 3900
Wire Wire Line
	5350 3900 5350 3850
Wire Wire Line
	7000 3900 6950 3900
Wire Wire Line
	6950 3900 6950 3850
Wire Wire Line
	7000 4100 6950 4100
Wire Wire Line
	6950 4100 6950 4150
$EndSCHEMATC
