(export (version D)
  (design
    (source C:/BitBucket/pcb-ws2812b-breakout/circuit.sch)
    (date "7/19/2014 7:25:02 PM")
    (tool "eeschema (2013-07-07 BZR 4022)-stable"))
  (components
    (comp (ref K2)
      (value CONN_3)
      (libsource (lib conn) (part CONN_3))
      (sheetpath (names /) (tstamps /))
      (tstamp 53C834F6))
    (comp (ref K1)
      (value CONN_3)
      (libsource (lib conn) (part CONN_3))
      (sheetpath (names /) (tstamps /))
      (tstamp 53C83510))
    (comp (ref C1)
      (value 0.1uF)
      (libsource (lib device) (part C))
      (sheetpath (names /) (tstamps /))
      (tstamp 53C83568))
    (comp (ref U1)
      (value WS2812B)
      (libsource (lib WS2812B) (part WS2812B))
      (sheetpath (names /) (tstamps /))
      (tstamp 53C836E9)))
  (libparts
    (libpart (lib device) (part C)
      (description "Condensateur non polarise")
      (footprints
        (fp SM*)
        (fp C?)
        (fp C1-1))
      (fields
        (field (name Reference) C)
        (field (name Value) C)
        (field (name Footprint) ~)
        (field (name Datasheet) ~))
      (pins
        (pin (num 1) (name ~) (type passive))
        (pin (num 2) (name ~) (type passive))))
    (libpart (lib conn) (part CONN_3)
      (description "Symbole general de connecteur")
      (fields
        (field (name Reference) K)
        (field (name Value) CONN_3))
      (pins
        (pin (num 1) (name P1) (type passive))
        (pin (num 2) (name PM) (type passive))
        (pin (num 3) (name P3) (type passive))))
    (libpart (lib WS2812B) (part WS2812B)
      (fields
        (field (name Reference) U)
        (field (name Value) WS2812B)
        (field (name Footprint) ~)
        (field (name Datasheet) ~))
      (pins
        (pin (num 1) (name VCC) (type input))
        (pin (num 2) (name DOUT) (type input))
        (pin (num 3) (name GND) (type input))
        (pin (num 4) (name DIN) (type input)))))
  (libraries
    (library (logical device)
      (uri "C:\\Program Files (x86)\\KiCad\\share\\library\\device.lib"))
    (library (logical conn)
      (uri "C:\\Program Files (x86)\\KiCad\\share\\library\\conn.lib"))
    (library (logical WS2812B)
      (uri library\WS2812B.lib)))
  (nets
    (net (code 1) (name /DOUT)
      (node (ref U1) (pin 2))
      (node (ref K2) (pin 2)))
    (net (code 2) (name GND)
      (node (ref K1) (pin 3))
      (node (ref K2) (pin 1))
      (node (ref C1) (pin 2))
      (node (ref U1) (pin 3)))
    (net (code 3) (name /DIN)
      (node (ref U1) (pin 4))
      (node (ref K1) (pin 2)))
    (net (code 4) (name VCC)
      (node (ref C1) (pin 1))
      (node (ref K1) (pin 1))
      (node (ref K2) (pin 3))
      (node (ref U1) (pin 1)))))