G04 (created by PCBNEW (2013-07-07 BZR 4022)-stable) date 2/8/2015 9:01:46 PM*
%MOIN*%
G04 Gerber Fmt 3.4, Leading zero omitted, Abs format*
%FSLAX34Y34*%
G01*
G70*
G90*
G04 APERTURE LIST*
%ADD10C,0.00590551*%
%ADD11R,0.055X0.035*%
%ADD12C,0.056*%
%ADD13C,0.027*%
%ADD14C,0.02*%
%ADD15C,0.007*%
G04 APERTURE END LIST*
G54D10*
G54D11*
X0Y375D03*
X0Y-375D03*
G54D12*
X1500Y-1000D03*
X1500Y0D03*
X1500Y1000D03*
X-1500Y1000D03*
X-1500Y0D03*
X-1500Y-1000D03*
G54D13*
X500Y450D03*
G54D14*
X0Y375D02*
X425Y375D01*
X425Y375D02*
X500Y450D01*
X-1500Y1000D02*
X-625Y1000D01*
X-625Y1000D02*
X0Y375D01*
X-1500Y1000D02*
X1500Y1000D01*
G54D10*
G36*
X1890Y-1390D02*
X1886Y-1390D01*
X1886Y-976D01*
X1885Y-969D01*
X1885Y37D01*
X1885Y1037D01*
X1870Y1111D01*
X1841Y1181D01*
X1799Y1244D01*
X1746Y1298D01*
X1684Y1340D01*
X1614Y1369D01*
X1540Y1384D01*
X1464Y1385D01*
X1390Y1371D01*
X1320Y1342D01*
X1257Y1301D01*
X1203Y1248D01*
X1173Y1205D01*
X-625Y1205D01*
X-1173Y1205D01*
X-1200Y1244D01*
X-1253Y1298D01*
X-1315Y1340D01*
X-1385Y1369D01*
X-1459Y1384D01*
X-1535Y1385D01*
X-1609Y1371D01*
X-1679Y1342D01*
X-1742Y1301D01*
X-1796Y1248D01*
X-1839Y1186D01*
X-1868Y1116D01*
X-1884Y1043D01*
X-1885Y967D01*
X-1871Y893D01*
X-1844Y823D01*
X-1803Y759D01*
X-1750Y705D01*
X-1688Y662D01*
X-1619Y632D01*
X-1545Y615D01*
X-1470Y614D01*
X-1395Y627D01*
X-1325Y654D01*
X-1261Y695D01*
X-1207Y747D01*
X-1173Y795D01*
X-709Y795D01*
X-380Y465D01*
X-380Y189D01*
X-376Y169D01*
X-368Y150D01*
X-356Y133D01*
X-342Y118D01*
X-325Y107D01*
X-306Y99D01*
X-286Y95D01*
X-265Y94D01*
X285Y94D01*
X305Y98D01*
X324Y106D01*
X341Y118D01*
X356Y132D01*
X367Y149D01*
X375Y168D01*
X376Y170D01*
X425Y170D01*
X443Y171D01*
X462Y173D01*
X463Y173D01*
X464Y173D01*
X482Y179D01*
X501Y184D01*
X502Y185D01*
X503Y185D01*
X519Y194D01*
X536Y203D01*
X537Y203D01*
X538Y204D01*
X552Y215D01*
X564Y217D01*
X608Y234D01*
X648Y259D01*
X682Y292D01*
X709Y330D01*
X728Y373D01*
X739Y419D01*
X740Y473D01*
X730Y519D01*
X712Y563D01*
X686Y602D01*
X653Y635D01*
X614Y662D01*
X571Y680D01*
X525Y689D01*
X478Y690D01*
X431Y681D01*
X388Y663D01*
X348Y637D01*
X342Y631D01*
X325Y642D01*
X306Y650D01*
X286Y654D01*
X265Y655D01*
X9Y655D01*
X-130Y795D01*
X1174Y795D01*
X1196Y759D01*
X1249Y705D01*
X1311Y662D01*
X1380Y632D01*
X1454Y615D01*
X1529Y614D01*
X1604Y627D01*
X1674Y654D01*
X1738Y695D01*
X1792Y747D01*
X1836Y808D01*
X1867Y877D01*
X1883Y951D01*
X1885Y1037D01*
X1885Y37D01*
X1870Y111D01*
X1841Y181D01*
X1799Y244D01*
X1746Y298D01*
X1684Y340D01*
X1614Y369D01*
X1540Y384D01*
X1464Y385D01*
X1390Y371D01*
X1320Y342D01*
X1257Y301D01*
X1203Y248D01*
X1160Y186D01*
X1131Y116D01*
X1115Y43D01*
X1114Y-32D01*
X1128Y-106D01*
X1155Y-176D01*
X1196Y-240D01*
X1249Y-294D01*
X1311Y-337D01*
X1380Y-367D01*
X1454Y-384D01*
X1529Y-385D01*
X1604Y-372D01*
X1674Y-345D01*
X1738Y-304D01*
X1792Y-252D01*
X1836Y-191D01*
X1867Y-122D01*
X1883Y-48D01*
X1885Y37D01*
X1885Y-969D01*
X1874Y-901D01*
X1847Y-830D01*
X1834Y-806D01*
X1781Y-774D01*
X1725Y-831D01*
X1725Y-718D01*
X1693Y-665D01*
X1625Y-633D01*
X1551Y-616D01*
X1476Y-613D01*
X1401Y-625D01*
X1330Y-652D01*
X1306Y-665D01*
X1274Y-718D01*
X1500Y-943D01*
X1725Y-718D01*
X1725Y-831D01*
X1556Y-1000D01*
X1781Y-1225D01*
X1834Y-1193D01*
X1866Y-1125D01*
X1883Y-1051D01*
X1886Y-976D01*
X1886Y-1390D01*
X1725Y-1390D01*
X1725Y-1281D01*
X1500Y-1056D01*
X1443Y-1113D01*
X1443Y-1000D01*
X1218Y-774D01*
X1165Y-806D01*
X1133Y-874D01*
X1116Y-948D01*
X1113Y-1023D01*
X1125Y-1098D01*
X1152Y-1169D01*
X1165Y-1193D01*
X1218Y-1225D01*
X1443Y-1000D01*
X1443Y-1113D01*
X1274Y-1281D01*
X1306Y-1334D01*
X1374Y-1366D01*
X1448Y-1383D01*
X1523Y-1386D01*
X1598Y-1374D01*
X1669Y-1347D01*
X1693Y-1334D01*
X1725Y-1281D01*
X1725Y-1390D01*
X380Y-1390D01*
X380Y-560D01*
X380Y-189D01*
X376Y-169D01*
X368Y-150D01*
X356Y-133D01*
X342Y-118D01*
X325Y-107D01*
X306Y-99D01*
X286Y-95D01*
X265Y-94D01*
X66Y-95D01*
X40Y-121D01*
X40Y-335D01*
X353Y-335D01*
X380Y-308D01*
X380Y-189D01*
X380Y-560D01*
X380Y-441D01*
X353Y-415D01*
X40Y-415D01*
X40Y-628D01*
X66Y-655D01*
X265Y-655D01*
X286Y-654D01*
X306Y-650D01*
X325Y-642D01*
X342Y-631D01*
X356Y-616D01*
X368Y-599D01*
X376Y-580D01*
X380Y-560D01*
X380Y-1390D01*
X-40Y-1390D01*
X-40Y-628D01*
X-40Y-415D01*
X-40Y-335D01*
X-40Y-121D01*
X-66Y-95D01*
X-265Y-94D01*
X-286Y-95D01*
X-306Y-99D01*
X-325Y-107D01*
X-342Y-118D01*
X-356Y-133D01*
X-368Y-150D01*
X-376Y-169D01*
X-380Y-189D01*
X-380Y-308D01*
X-353Y-335D01*
X-40Y-335D01*
X-40Y-415D01*
X-353Y-415D01*
X-380Y-441D01*
X-380Y-560D01*
X-376Y-580D01*
X-368Y-599D01*
X-356Y-616D01*
X-342Y-631D01*
X-325Y-642D01*
X-306Y-650D01*
X-286Y-654D01*
X-265Y-655D01*
X-66Y-655D01*
X-40Y-628D01*
X-40Y-1390D01*
X-1113Y-1390D01*
X-1113Y-976D01*
X-1114Y-969D01*
X-1114Y37D01*
X-1129Y111D01*
X-1158Y181D01*
X-1200Y244D01*
X-1253Y298D01*
X-1315Y340D01*
X-1385Y369D01*
X-1459Y384D01*
X-1535Y385D01*
X-1609Y371D01*
X-1679Y342D01*
X-1742Y301D01*
X-1796Y248D01*
X-1839Y186D01*
X-1868Y116D01*
X-1884Y43D01*
X-1885Y-32D01*
X-1871Y-106D01*
X-1844Y-176D01*
X-1803Y-240D01*
X-1750Y-294D01*
X-1688Y-337D01*
X-1619Y-367D01*
X-1545Y-384D01*
X-1470Y-385D01*
X-1395Y-372D01*
X-1325Y-345D01*
X-1261Y-304D01*
X-1207Y-252D01*
X-1163Y-191D01*
X-1132Y-122D01*
X-1116Y-48D01*
X-1114Y37D01*
X-1114Y-969D01*
X-1125Y-901D01*
X-1152Y-830D01*
X-1165Y-806D01*
X-1218Y-774D01*
X-1274Y-831D01*
X-1274Y-718D01*
X-1306Y-665D01*
X-1374Y-633D01*
X-1448Y-616D01*
X-1523Y-613D01*
X-1598Y-625D01*
X-1669Y-652D01*
X-1693Y-665D01*
X-1725Y-718D01*
X-1500Y-943D01*
X-1274Y-718D01*
X-1274Y-831D01*
X-1443Y-1000D01*
X-1218Y-1225D01*
X-1165Y-1193D01*
X-1133Y-1125D01*
X-1116Y-1051D01*
X-1113Y-976D01*
X-1113Y-1390D01*
X-1274Y-1390D01*
X-1274Y-1281D01*
X-1500Y-1056D01*
X-1556Y-1113D01*
X-1556Y-1000D01*
X-1781Y-774D01*
X-1834Y-806D01*
X-1866Y-874D01*
X-1883Y-948D01*
X-1886Y-1023D01*
X-1874Y-1098D01*
X-1847Y-1169D01*
X-1834Y-1193D01*
X-1781Y-1225D01*
X-1556Y-1000D01*
X-1556Y-1113D01*
X-1725Y-1281D01*
X-1693Y-1334D01*
X-1625Y-1366D01*
X-1551Y-1383D01*
X-1476Y-1386D01*
X-1401Y-1374D01*
X-1330Y-1347D01*
X-1306Y-1334D01*
X-1274Y-1281D01*
X-1274Y-1390D01*
X-1890Y-1390D01*
X-1890Y1390D01*
X1890Y1390D01*
X1890Y-1390D01*
X1890Y-1390D01*
G37*
G54D15*
X1890Y-1390D02*
X1886Y-1390D01*
X1886Y-976D01*
X1885Y-969D01*
X1885Y37D01*
X1885Y1037D01*
X1870Y1111D01*
X1841Y1181D01*
X1799Y1244D01*
X1746Y1298D01*
X1684Y1340D01*
X1614Y1369D01*
X1540Y1384D01*
X1464Y1385D01*
X1390Y1371D01*
X1320Y1342D01*
X1257Y1301D01*
X1203Y1248D01*
X1173Y1205D01*
X-625Y1205D01*
X-1173Y1205D01*
X-1200Y1244D01*
X-1253Y1298D01*
X-1315Y1340D01*
X-1385Y1369D01*
X-1459Y1384D01*
X-1535Y1385D01*
X-1609Y1371D01*
X-1679Y1342D01*
X-1742Y1301D01*
X-1796Y1248D01*
X-1839Y1186D01*
X-1868Y1116D01*
X-1884Y1043D01*
X-1885Y967D01*
X-1871Y893D01*
X-1844Y823D01*
X-1803Y759D01*
X-1750Y705D01*
X-1688Y662D01*
X-1619Y632D01*
X-1545Y615D01*
X-1470Y614D01*
X-1395Y627D01*
X-1325Y654D01*
X-1261Y695D01*
X-1207Y747D01*
X-1173Y795D01*
X-709Y795D01*
X-380Y465D01*
X-380Y189D01*
X-376Y169D01*
X-368Y150D01*
X-356Y133D01*
X-342Y118D01*
X-325Y107D01*
X-306Y99D01*
X-286Y95D01*
X-265Y94D01*
X285Y94D01*
X305Y98D01*
X324Y106D01*
X341Y118D01*
X356Y132D01*
X367Y149D01*
X375Y168D01*
X376Y170D01*
X425Y170D01*
X443Y171D01*
X462Y173D01*
X463Y173D01*
X464Y173D01*
X482Y179D01*
X501Y184D01*
X502Y185D01*
X503Y185D01*
X519Y194D01*
X536Y203D01*
X537Y203D01*
X538Y204D01*
X552Y215D01*
X564Y217D01*
X608Y234D01*
X648Y259D01*
X682Y292D01*
X709Y330D01*
X728Y373D01*
X739Y419D01*
X740Y473D01*
X730Y519D01*
X712Y563D01*
X686Y602D01*
X653Y635D01*
X614Y662D01*
X571Y680D01*
X525Y689D01*
X478Y690D01*
X431Y681D01*
X388Y663D01*
X348Y637D01*
X342Y631D01*
X325Y642D01*
X306Y650D01*
X286Y654D01*
X265Y655D01*
X9Y655D01*
X-130Y795D01*
X1174Y795D01*
X1196Y759D01*
X1249Y705D01*
X1311Y662D01*
X1380Y632D01*
X1454Y615D01*
X1529Y614D01*
X1604Y627D01*
X1674Y654D01*
X1738Y695D01*
X1792Y747D01*
X1836Y808D01*
X1867Y877D01*
X1883Y951D01*
X1885Y1037D01*
X1885Y37D01*
X1870Y111D01*
X1841Y181D01*
X1799Y244D01*
X1746Y298D01*
X1684Y340D01*
X1614Y369D01*
X1540Y384D01*
X1464Y385D01*
X1390Y371D01*
X1320Y342D01*
X1257Y301D01*
X1203Y248D01*
X1160Y186D01*
X1131Y116D01*
X1115Y43D01*
X1114Y-32D01*
X1128Y-106D01*
X1155Y-176D01*
X1196Y-240D01*
X1249Y-294D01*
X1311Y-337D01*
X1380Y-367D01*
X1454Y-384D01*
X1529Y-385D01*
X1604Y-372D01*
X1674Y-345D01*
X1738Y-304D01*
X1792Y-252D01*
X1836Y-191D01*
X1867Y-122D01*
X1883Y-48D01*
X1885Y37D01*
X1885Y-969D01*
X1874Y-901D01*
X1847Y-830D01*
X1834Y-806D01*
X1781Y-774D01*
X1725Y-831D01*
X1725Y-718D01*
X1693Y-665D01*
X1625Y-633D01*
X1551Y-616D01*
X1476Y-613D01*
X1401Y-625D01*
X1330Y-652D01*
X1306Y-665D01*
X1274Y-718D01*
X1500Y-943D01*
X1725Y-718D01*
X1725Y-831D01*
X1556Y-1000D01*
X1781Y-1225D01*
X1834Y-1193D01*
X1866Y-1125D01*
X1883Y-1051D01*
X1886Y-976D01*
X1886Y-1390D01*
X1725Y-1390D01*
X1725Y-1281D01*
X1500Y-1056D01*
X1443Y-1113D01*
X1443Y-1000D01*
X1218Y-774D01*
X1165Y-806D01*
X1133Y-874D01*
X1116Y-948D01*
X1113Y-1023D01*
X1125Y-1098D01*
X1152Y-1169D01*
X1165Y-1193D01*
X1218Y-1225D01*
X1443Y-1000D01*
X1443Y-1113D01*
X1274Y-1281D01*
X1306Y-1334D01*
X1374Y-1366D01*
X1448Y-1383D01*
X1523Y-1386D01*
X1598Y-1374D01*
X1669Y-1347D01*
X1693Y-1334D01*
X1725Y-1281D01*
X1725Y-1390D01*
X380Y-1390D01*
X380Y-560D01*
X380Y-189D01*
X376Y-169D01*
X368Y-150D01*
X356Y-133D01*
X342Y-118D01*
X325Y-107D01*
X306Y-99D01*
X286Y-95D01*
X265Y-94D01*
X66Y-95D01*
X40Y-121D01*
X40Y-335D01*
X353Y-335D01*
X380Y-308D01*
X380Y-189D01*
X380Y-560D01*
X380Y-441D01*
X353Y-415D01*
X40Y-415D01*
X40Y-628D01*
X66Y-655D01*
X265Y-655D01*
X286Y-654D01*
X306Y-650D01*
X325Y-642D01*
X342Y-631D01*
X356Y-616D01*
X368Y-599D01*
X376Y-580D01*
X380Y-560D01*
X380Y-1390D01*
X-40Y-1390D01*
X-40Y-628D01*
X-40Y-415D01*
X-40Y-335D01*
X-40Y-121D01*
X-66Y-95D01*
X-265Y-94D01*
X-286Y-95D01*
X-306Y-99D01*
X-325Y-107D01*
X-342Y-118D01*
X-356Y-133D01*
X-368Y-150D01*
X-376Y-169D01*
X-380Y-189D01*
X-380Y-308D01*
X-353Y-335D01*
X-40Y-335D01*
X-40Y-415D01*
X-353Y-415D01*
X-380Y-441D01*
X-380Y-560D01*
X-376Y-580D01*
X-368Y-599D01*
X-356Y-616D01*
X-342Y-631D01*
X-325Y-642D01*
X-306Y-650D01*
X-286Y-654D01*
X-265Y-655D01*
X-66Y-655D01*
X-40Y-628D01*
X-40Y-1390D01*
X-1113Y-1390D01*
X-1113Y-976D01*
X-1114Y-969D01*
X-1114Y37D01*
X-1129Y111D01*
X-1158Y181D01*
X-1200Y244D01*
X-1253Y298D01*
X-1315Y340D01*
X-1385Y369D01*
X-1459Y384D01*
X-1535Y385D01*
X-1609Y371D01*
X-1679Y342D01*
X-1742Y301D01*
X-1796Y248D01*
X-1839Y186D01*
X-1868Y116D01*
X-1884Y43D01*
X-1885Y-32D01*
X-1871Y-106D01*
X-1844Y-176D01*
X-1803Y-240D01*
X-1750Y-294D01*
X-1688Y-337D01*
X-1619Y-367D01*
X-1545Y-384D01*
X-1470Y-385D01*
X-1395Y-372D01*
X-1325Y-345D01*
X-1261Y-304D01*
X-1207Y-252D01*
X-1163Y-191D01*
X-1132Y-122D01*
X-1116Y-48D01*
X-1114Y37D01*
X-1114Y-969D01*
X-1125Y-901D01*
X-1152Y-830D01*
X-1165Y-806D01*
X-1218Y-774D01*
X-1274Y-831D01*
X-1274Y-718D01*
X-1306Y-665D01*
X-1374Y-633D01*
X-1448Y-616D01*
X-1523Y-613D01*
X-1598Y-625D01*
X-1669Y-652D01*
X-1693Y-665D01*
X-1725Y-718D01*
X-1500Y-943D01*
X-1274Y-718D01*
X-1274Y-831D01*
X-1443Y-1000D01*
X-1218Y-1225D01*
X-1165Y-1193D01*
X-1133Y-1125D01*
X-1116Y-1051D01*
X-1113Y-976D01*
X-1113Y-1390D01*
X-1274Y-1390D01*
X-1274Y-1281D01*
X-1500Y-1056D01*
X-1556Y-1113D01*
X-1556Y-1000D01*
X-1781Y-774D01*
X-1834Y-806D01*
X-1866Y-874D01*
X-1883Y-948D01*
X-1886Y-1023D01*
X-1874Y-1098D01*
X-1847Y-1169D01*
X-1834Y-1193D01*
X-1781Y-1225D01*
X-1556Y-1000D01*
X-1556Y-1113D01*
X-1725Y-1281D01*
X-1693Y-1334D01*
X-1625Y-1366D01*
X-1551Y-1383D01*
X-1476Y-1386D01*
X-1401Y-1374D01*
X-1330Y-1347D01*
X-1306Y-1334D01*
X-1274Y-1281D01*
X-1274Y-1390D01*
X-1890Y-1390D01*
X-1890Y1390D01*
X1890Y1390D01*
X1890Y-1390D01*
M02*
